<?xml version="1.0" encoding="utf-8"?>
<!-- Generator: Adobe Illustrator 21.1.0, SVG Export Plug-In . SVG Version: 6.00 Build 0)  -->
<svg version="1.1" id="Layer_1" xmlns="http://www.w3.org/2000/svg" xmlns:xlink="http://www.w3.org/1999/xlink" x="0px" y="0px"
	 viewBox="0 0 177.3 99.9" style="enable-background:new 0 0 177.3 99.9;" xml:space="preserve">
<style type="text/css">
	.st0{fill:#3EB1C8;}
	.st1{fill:#D8D2C4;}
	.st2{fill:#FFC72C;}
	.st3{fill:#EF3340;}
	.st4{fill:#555A59;}
</style>
<g>
	<path class="st0" d="M84.7,21.4C84.7,21.4,84.7,21.3,84.7,21.4l-10.5,5.3c1,0.3,2.1,0.4,3.2,0.4C81.1,27,84.7,25.7,84.7,21.4z"/>
	<path class="st0" d="M94.9,14c0.5,0,1.2,0.1,1.6,0.2V10c-0.3-0.1-0.7-0.2-1-0.2c-2.1,0-4.3,1.4-5.1,3.5h-0.1v-3h-4.2v10.3l4.5-2.3
		C90.9,15.9,92.1,14,94.9,14z"/>
	<path class="st0" d="M90.6,26.6v-7.3c0-0.3,0-0.6,0-0.9l-4.5,2.3v6H90.6z"/>
	<path class="st0" d="M105.1,9.9c-3.5,0-6.3,2-7.5,4.9l9.3-4.7C106.4,9.9,105.8,9.9,105.1,9.9z"/>
	<path class="st0" d="M105.1,27c3.6,0,6.3-1.6,7.5-5.5h-3.9c-0.3,1-1.7,2.1-3.5,2.1c-2.5,0-3.8-1.3-3.9-4.1h11.6
		c0.3-4.4-1.7-8.6-6-9.5l-9.3,4.7c-0.5,1.1-0.7,2.4-0.7,3.7C96.9,23.5,100.1,27,105.1,27z M105,13.2c2.1,0,3.1,1.2,3.5,3.5h-7.2
		C101.4,15.5,102.2,13.2,105,13.2z"/>
	<path class="st0" d="M115.4,26.6h4.4V13.3h3v-3h-3v-1c0-1.4,0.5-1.9,1.7-1.9c0.6,0,1.1,0,1.6,0.1V4.2c-0.7,0-1.6-0.1-2.3-0.1
		c-3.6,0-5.4,2.1-5.4,4.9v1.3h-2.6v3h2.6V26.6z"/>
	<polygon class="st1" points="42.8,95.7 42.8,85.3 35.8,85.3 15,95.7 	"/>
	<path class="st2" d="M74.7,91.8c0.1,1.3,0.4,2.7,0.8,3.9h11.1c-1-1.6-1.4-5.3-1.4-9V71.3L64,96.6C68,96.2,71.9,94.7,74.7,91.8z"/>
	<path class="st0" d="M61.3,72.3c-5,0.7-10,2.1-12.3,6.5l13.2-6.6C61.9,72.2,61.6,72.3,61.3,72.3z"/>
	<path class="st0" d="M67.7,54.1c-9,0-18.2,3.1-18.8,13.6h11c0.4-4.4,3.1-6.1,7.3-6.1c3.6,0,6.7,0.6,7.1,4.7l10.2-5.1
		C81.8,55.3,74.2,54.1,67.7,54.1z"/>
	<path class="st1" d="M85.2,65.6c0-1.7-0.3-3.2-0.9-4.4l-10.2,5.1c0,0.3,0,0.5,0,0.8c0,4.3-5.7,4.3-12.1,5.2l-13.2,6.6
		c-0.8,1.5-1.3,3.5-1.3,5.8c0,8.3,6,12.1,13.6,12.1c0.9,0,1.9-0.1,2.8-0.2l21.2-25.3V65.6z M74.2,80c0,2.4-0.3,9.3-8.9,9.3
		c-3.6,0-6.7-1-6.7-5.2c0-4.1,3.1-5.2,6.5-6c3.4-0.6,7.3-0.7,9.1-2.3V80z"/>
	<path class="st3" d="M111.9,88.4c-1.1,0-2-0.2-2.9-0.5l-6.2,3c2.5,4.2,7.2,5.9,12.9,5.9c7.7,0,15.9-6.1,16.5-19.9l-12.3,5.8
		C118.4,86.1,115.8,88.4,111.9,88.4z"/>
	<polygon class="st3" points="102.4,95.7 102.4,91 92.6,95.7 	"/>
	<path class="st2" d="M102.4,90.5h0.2c0.1,0.1,0.1,0.2,0.2,0.4l6.2-3c-4.4-1.6-6.5-6.8-6.5-12.4c0-6.8,2.9-13,9.3-13
		c6.5,0,9.3,6.2,9.3,13c0,2.6-0.4,5.1-1.3,7.3l12.3-5.8c0-0.5,0.1-1,0.1-1.5c0-14.8-8.6-21.3-16.5-21.3c-4.9,0-9.9,1.9-12.6,6h-0.2
		V52l-2.5,1.2l-8.5,10.1v32.4h0.7l9.8-4.6V90.5z"/>
	<polygon class="st0" points="102.9,52 102.9,39.7 91.9,39.7 91.9,57.4 100.4,53.2 	"/>
	<polygon class="st1" points="100.4,53.2 91.9,57.4 91.9,63.3 	"/>
	<path class="st3" d="M149.9,77.9c7.9,1.7,12.4,2.9,12.4,6.3c0,3.9-4,5.2-7.2,5.2c-4.3,0-8.3-2-8.4-6.8h-10.4
		c0.5,10.7,9.5,14.3,18.8,14.3c9.1,0,18.2-3.4,18.2-14.1c0-7.5-6.3-9.9-12.7-11.4c-4.1-1-8.2-1.6-10.5-3l-10.5,5
		C142.1,75.8,146,77,149.9,77.9z"/>
	<path class="st3" d="M161.8,67h10.4c-0.3-3.3-1.4-5.8-3-7.7l-8.8,4.2C161.2,64.3,161.7,65.4,161.8,67z"/>
	<path class="st2" d="M148.2,65.3c0-3.3,3.6-3.8,6.1-3.8c2.5,0,4.7,0.5,6.1,1.9l8.8-4.2c-3.3-3.8-8.8-5.2-14.6-5.2
		c-8.6,0-17.4,2.7-17.4,13c0,2.7,0.9,4.7,2.4,6.2l10.5-5C148.9,67.6,148.2,66.6,148.2,65.3z"/>
</g>
<g>
	<path class="st0" d="M63.5,16.8c-0.7-0.2-1.4-0.3-2.1-0.5l-2.6,3c0.1,0,0.2,0.1,0.4,0.1c3.2,0.7,5,1.2,5,2.5c0,1.6-1.6,2.1-2.9,2.1
		c-1.7,0-3.4-0.8-3.4-2.7h-0.8l-2.5,2.9c1.3,2.1,4,2.8,6.7,2.8c3.7,0,7.3-1.4,7.3-5.7C68.6,18.4,66.1,17.4,63.5,16.8z"/>
	<path class="st0" d="M64,15.1h4.2c-0.2-1.9-1-3.2-2.2-4l-2.4,2.8C63.8,14.2,64,14.6,64,15.1z"/>
	<path class="st0" d="M79.6,16.8c-2.5-0.6-5-0.8-5-2.4c0-1.3,1.5-1.5,2.5-1.5c1.6,0,2.9,0.5,3,2.2h4.2c-0.3-4-3.6-5.2-7.1-5.2
		c-3.5,0-7,1.1-7,5.2c0,2.9,2.5,3.8,5.1,4.3c3.2,0.7,5,1.2,5,2.5c0,1.6-1.6,2.1-2.9,2.1c-1.7,0-3.4-0.8-3.4-2.7h-4.2
		c0.1,3.1,2,4.7,4.4,5.3l10.5-5.3C84.7,18.3,82.2,17.4,79.6,16.8z"/>
	<polygon class="st0" points="3.8,95.7 15,95.7 35.8,85.3 15.9,85.3 15.9,68.8 3.8,82.8 	"/>
	<path class="st4" d="M44.5,9.9c-5,0-8.3,3.4-8.3,8.6c0,5.2,3.3,8.6,8.3,8.6c5.1,0,8.3-3.4,8.3-8.6C52.8,13.3,49.5,9.9,44.5,9.9z
		 M44.5,23.7c-3,0-3.9-2.6-3.9-5.2c0-2.6,0.9-5.2,3.9-5.2c3,0,3.9,2.6,3.9,5.2C48.4,21.1,47.5,23.7,44.5,23.7z"/>
	<path class="st4" d="M14.2,23c-4.4,0-6-3.8-6-7.5c0-3.9,1.6-7.7,6-7.7c2.4,0,4.5,1.7,4.8,3.9h4.7c-0.6-5.2-4.7-8.1-9.6-8.1
		C7.4,3.6,3.3,8.8,3.3,15.5c0,6.5,4,11.7,10.9,11.7c5.4,0,9.3-3.6,9.8-9.2h-4.7C18.9,20.9,17.2,23,14.2,23z"/>
	<path class="st4" d="M30,13.3L30,13.3l-0.1-3h-4.2v16.3h4.4v-7.3c0-2.9,1.1-5.2,4.4-5.2c0.5,0,1.2,0.1,1.6,0.2V10
		c-0.3-0.1-0.7-0.2-1-0.2C33,9.9,30.8,11.3,30,13.3z"/>
	<path class="st4" d="M54.1,15.1c0,2.7,2.3,3.7,4.7,4.3l2.6-3c-1.6-0.4-2.9-0.8-2.9-2c0-1.3,1.5-1.5,2.5-1.5c1.1,0,2.1,0.2,2.6,1
		l2.4-2.8c-1.3-0.9-3.1-1.2-4.9-1.2C57.7,9.9,54.1,10.9,54.1,15.1z"/>
	<path class="st4" d="M53.7,21.3c0.1,1.2,0.4,2.1,0.9,2.9l2.5-2.9H53.7z"/>
	<polygon class="st4" points="3.8,39.7 3.8,82.8 15.9,68.8 15.9,39.7 	"/>
</g>
</svg>
